<?xml version="1.0" encoding="utf-8"?>
<!-- Generator: Adobe Illustrator 21.0.2, SVG Export Plug-In . SVG Version: 6.00 Build 0)  -->
<svg version="1.1" id="Layer_1" xmlns="http://www.w3.org/2000/svg" xmlns:xlink="http://www.w3.org/1999/xlink" x="0px" y="0px"
	 viewBox="0 0 512 512" style="enable-background:new 0 0 512 512;" xml:space="preserve">
<path d="M419.6,168.6c-11.7,5.2-24.2,8.7-37.4,10.2c13.4-8.1,23.8-20.8,28.6-36c-12.6,7.5-26.5,12.9-41.3,15.8
	C357.6,146,340.7,138,322,138c-42,0-72.9,39.2-63.4,79.9c-54.1-2.7-102.1-28.6-134.2-68c-17,29.2-8.8,67.5,20.1,86.9
	c-10.7-0.3-20.7-3.3-29.5-8.1c-0.7,30.2,20.9,58.4,52.2,64.6c-9.2,2.5-19.2,3.1-29.4,1.1c8.3,25.9,32.3,44.7,60.8,45.2
	c-27.4,21.4-61.8,31-96.4,27c28.8,18.5,63,29.2,99.8,29.2c120.8,0,189.1-102.1,185-193.6C399.9,193.1,410.9,181.7,419.6,168.6z"/>
</svg>
